// Bearbeiter:    Kraus
// Freigabe:      Ja
// Datum:         23.08.2012
// Version:       1.0
// FC-Nummer:     
// Visu-Variante:

TYPE;PW1;Prozesswert;;; 
  B154;SOLL;0002N;Numero de blocos no carrinho;#; 
END_TYPE 